…
```r
##mean total of steps taken per day

###mean steps per day
mean_steps_perday <-
  Activity %>%
  group_by(date) %>%
  summarise(mean = mean(steps, na.rm = T)) 

##output
mean_steps_perday
```

```
## # A tibble: 61 × 2
##          date     mean
##        <fctr>    <dbl>
## 1  2012-10-01      NaN
## 2  2012-10-02  0.43750
## 3  2012-10-03 39.41667
## 4  2012-10-04 42.06944
## 5  2012-10-05 46.15972
## 6  2012-10-06 53.54167
## 7  2012-10-07 38.24653
## 8  2012-10-08      NaN
## 9  2012-10-09 44.48264
## 10 2012-10-10 34.37500
## # ... with 51 more rows
```
…
```r
###total number of steps taken per day
totalnstep <- 
  Activity %>%
  group_by(date) %>%
  summarise(totalns = sum(steps))

###
totalnstep
```

```
## # A tibble: 61 × 2
##          date totalns
##        <fctr>   <int>
## 1  2012-10-01      NA
## 2  2012-10-02     126
## 3  2012-10-03   11352
## 4  2012-10-04   12116
## 5  2012-10-05   13294
## 6  2012-10-06   15420
## 7  2012-10-07   11015
## 8  2012-10-08      NA
## 9  2012-10-09   12811
## 10 2012-10-10    9900
## # ... with 51 more rows
```
…
